SankatMochan-robot/4_Bit_Comparator/simulation/qsim/4_Bit_Comparator.msim.vcd
$comment
	File created using the following command:
		vcd file 4_Bit_Comparator.msim.vcd -direction
$end
$date
	Sat Oct 24 17:32:58 2020
$end
$version
	ModelSim Version 10.5b
$end
$timescale
	1ps
$end

$scope module Two_Bit_Comparator_vlg_vec_tst $end
$var reg 1 ! A0 $end
$var reg 1 " A1 $end
$var reg 1 # B0 $end
$var reg 1 $ B1 $end
$var wire 1 % A_Greater $end
$var wire 1 & B_Greater $end
$var wire 1 ' Equal $end

$scope module i1 $end
$var wire 1 ( gnd $end
$var wire 1 ) vcc $end
$var wire 1 * unknown $end
$var tri1 1 + devclrn $end
$var tri1 1 , devpor $end
$var tri1 1 - devoe $end
$var wire 1 . A_Greater~output_o $end
$var wire 1 / Equal~output_o $end
$var wire 1 0 B_Greater~output_o $end
$var wire 1 1 A1~input_o $end
$var wire 1 2 B1~input_o $end
$var wire 1 3 A0~input_o $end
$var wire 1 4 B0~input_o $end
$var wire 1 5 A_Greater~0_combout $end
$var wire 1 6 u3~combout $end
$var wire 1 7 B_Greater~0_combout $end
$upscope $end
$upscope $end
$enddefinitions $end
#0
$dumpvars
0!
0"
0#
0$
0%
0&
1'
0(
1)
x*
1+
1,
1-
0.
1/
00
01
02
03
04
05
06
07
$end
#10000
1"
11
16
15
1.
0/
0'
1%
#20000
1!
0"
13
01
#30000
1$
1"
12
11
#40000
1#
0!
0"
14
03
01
17
05
0.
10
1&
0%
#50000
1"
11
#60000
0$
1!
0"
02
13
01
06
07
00
1/
1'
0&
#70000
1"
11
16
15
1.
0/
0'
1%
#80000
0#
0!
0"
04
03
01
06
05
0.
1/
1'
0%
#90000
1$
1"
12
11
#100000
1!
0"
13
01
16
17
10
0/
0'
1&
#110000
1"
11
07
15
1.
00
0&
1%
#120000
1#
0$
0!
0"
14
02
03
01
17
05
0.
10
1&
0%
#130000
1"
11
07
15
1.
00
0&
1%
#140000
1!
0"
13
01
06
05
0.
1/
1'
0%
#150000
1$
1"
12
11
#160000
0#
0!
0"
04
03
01
16
17
10
0/
0'
1&
#170000
1"
11
06
07
00
1/
1'
0&
#180000
0$
1!
0"
02
13
01
16
15
1.
0/
0'
1%
#190000
1"
11
#200000
1#
0!
0"
14
03
01
17
05
0.
10
1&
0%
#210000
1$
1"
12
11
#220000
1!
0"
13
01
#230000
1"
11
06
07
00
1/
1'
0&
#240000
0#
0$
0!
0"
04
02
03
01
#250000
1"
11
16
15
1.
0/
0'
1%
#260000
1!
0"
13
01
#270000
1$
1"
12
11
#280000
1#
0!
0"
14
03
01
17
05
0.
10
1&
0%
#290000
1"
11
#300000
0$
1!
0"
02
13
01
06
07
00
1/
1'
0&
#310000
1"
11
16
15
1.
0/
0'
1%
#320000
0#
0!
0"
04
03
01
06
05
0.
1/
1'
0%
#330000
1$
1"
12
11
#340000
1!
0"
13
01
16
17
10
0/
0'
1&
#350000
1"
11
07
15
1.
00
0&
1%
#360000
1#
0$
0!
0"
14
02
03
01
17
05
0.
10
1&
0%
#370000
1"
11
07
15
1.
00
0&
1%
#380000
1!
0"
13
01
06
05
0.
1/
1'
0%
#390000
1$
1"
12
11
#400000
0#
0!
0"
04
03
01
16
17
10
0/
0'
1&
#410000
1"
11
06
07
00
1/
1'
0&
#420000
0$
1!
0"
02
13
01
16
15
1.
0/
0'
1%
#430000
1"
11
#440000
1#
0!
0"
14
03
01
17
05
0.
10
1&
0%
#450000
1$
1"
12
11
#460000
1!
0"
13
01
#470000
1"
11
06
07
00
1/
1'
0&
#480000
0#
0$
0!
0"
04
02
03
01
#490000
1"
11
16
15
1.
0/
0'
1%
#500000
1!
0"
13
01
#510000
1$
1"
12
11
#520000
1#
0!
0"
14
03
01
17
05
0.
10
1&
0%
#530000
1"
11
#540000
0$
1!
0"
02
13
01
06
07
00
1/
1'
0&
#550000
1"
11
16
15
1.
0/
0'
1%
#560000
0#
0!
0"
04
03
01
06
05
0.
1/
1'
0%
#570000
1$
1"
12
11
#580000
1!
0"
13
01
16
17
10
0/
0'
1&
#590000
1"
11
07
15
1.
00
0&
1%
#600000
1#
0$
0!
0"
14
02
03
01
17
05
0.
10
1&
0%
#610000
1"
11
07
15
1.
00
0&
1%
#620000
1!
0"
13
01
06
05
0.
1/
1'
0%
#630000
1$
1"
12
11
#640000
0#
0!
0"
04
03
01
16
17
10
0/
0'
1&
#650000
1"
11
06
07
00
1/
1'
0&
#660000
0$
1!
0"
02
13
01
16
15
1.
0/
0'
1%
#670000
1"
11
#680000
1#
0!
0"
14
03
01
17
05
0.
10
1&
0%
#690000
1$
1"
12
11
#700000
1!
0"
13
01
#710000
1"
11
06
07
00
1/
1'
0&
#720000
0#
0$
0!
0"
04
02
03
01
#730000
1"
11
16
15
1.
0/
0'
1%
#740000
1!
0"
13
01
#750000
1$
1"
12
11
#760000
1#
0!
0"
14
03
01
17
05
0.
10
1&
0%
#770000
1"
11
#780000
0$
1!
0"
02
13
01
06
07
00
1/
1'
0&
#790000
1"
11
16
15
1.
0/
0'
1%
#800000
0#
0!
0"
04
03
01
06
05
0.
1/
1'
0%
#810000
1$
1"
12
11
#820000
1!
0"
13
01
16
17
10
0/
0'
1&
#830000
1"
11
07
15
1.
00
0&
1%
#840000
1#
0$
0!
0"
14
02
03
01
17
05
0.
10
1&
0%
#850000
1"
11
07
15
1.
00
0&
1%
#860000
1!
0"
13
01
06
05
0.
1/
1'
0%
#870000
1$
1"
12
11
#880000
0#
0!
0"
04
03
01
16
17
10
0/
0'
1&
#890000
1"
11
06
07
00
1/
1'
0&
#900000
0$
1!
0"
02
13
01
16
15
1.
0/
0'
1%
#910000
1"
11
#920000
1#
0!
0"
14
03
01
17
05
0.
10
1&
0%
#930000
1$
1"
12
11
#940000
1!
0"
13
01
#950000
1"
11
06
07
00
1/
1'
0&
#960000
0#
0$
0!
0"
04
02
03
01
#970000
1"
11
16
15
1.
0/
0'
1%
#980000
1!
0"
13
01
#990000
1$
1"
12
11
